<?xml version="1.0" encoding="UTF-8"?>
<OAI-PMH xmlns="http://www.openarchives.org/OAI/2.0/" xmlns:xsi="http://www.w3.org/2001/XMLSchema-instance" xsi:schemaLocation="http://www.openarchives.org/OAI/2.0/             http://www.openarchives.org/OAI/2.0/OAI-PMH.xsd">
   <responseDate>2015-04-11T20:49:45Z</responseDate>
   <request metadataPrefix="cmdi0571" verb="ListIdentifiers">http://metalb.csc.fi/cgi-bin/que</request>
   <ListIdentifiers>
<header><identifier>oai:kielipankki.fi:shbde0b0</identifier><datestamp>2015-04-01T08:00:38Z</datestamp></header>
<header status="deleted"><identifier>oai:kielipankki.fi:shf2b4c0</identifier><datestamp>2015-04-01T08:00:40Z</datestamp></header>
<header><identifier>oai:kielipankki.fi:sh7fb9c0</identifier><datestamp>2015-04-01T08:00:37Z</datestamp></header>
<header status="deleted"><identifier>oai:kielipankki.fi:sh636270</identifier><datestamp>2015-04-01T08:00:40Z</datestamp></header>
<header status="deleted"><identifier>oai:kielipankki.fi:sha08830</identifier><datestamp>2015-04-01T08:00:40Z</datestamp></header>
<header><identifier>oai:kielipankki.fi:sh5c4f50</identifier><datestamp>2015-04-01T08:00:33Z</datestamp></header>
<header><identifier>oai:kielipankki.fi:sh0f3140</identifier><datestamp>2015-04-01T08:00:40Z</datestamp></header>
<header><identifier>oai:kielipankki.fi:sh0dec30</identifier><datestamp>2015-04-01T08:00:40Z</datestamp></header>
<header status="deleted"><identifier>oai:kielipankki.fi:shf77480</identifier><datestamp>2015-04-01T08:00:33Z</datestamp></header>
<header><identifier>oai:kielipankki.fi:sh1062a0</identifier><datestamp>2015-04-01T08:00:35Z</datestamp></header>
<header status="deleted"><identifier>oai:kielipankki.fi:sh168120</identifier><datestamp>2015-04-01T08:00:46Z</datestamp></header>
<header><identifier>oai:kielipankki.fi:shd080b0</identifier><datestamp>2015-04-01T08:00:45Z</datestamp></header>
<header><identifier>oai:kielipankki.fi:sh8e2580</identifier><datestamp>2015-04-01T08:00:35Z</datestamp></header>
<header><identifier>oai:kielipankki.fi:shec0c90</identifier><datestamp>2015-04-01T08:00:38Z</datestamp></header>
<header status="deleted"><identifier>oai:kielipankki.fi:shaab2b0</identifier><datestamp>2015-04-01T08:00:45Z</datestamp></header>
<header><identifier>oai:kielipankki.fi:sh820520</identifier><datestamp>2015-04-01T08:00:42Z</datestamp></header>
<header><identifier>oai:kielipankki.fi:sh932300</identifier><datestamp>2015-04-01T08:00:42Z</datestamp></header>
<header status="deleted"><identifier>oai:kielipankki.fi:she4ba90</identifier><datestamp>2015-04-01T08:00:38Z</datestamp></header>
<header><identifier>oai:kielipankki.fi:sha3a880</identifier><datestamp>2015-04-01T08:00:43Z</datestamp></header>
<header status="deleted"><identifier>oai:kielipankki.fi:shd42750</identifier><datestamp>2015-04-01T08:00:37Z</datestamp></header>
<header><identifier>oai:kielipankki.fi:sh0c4840</identifier><datestamp>2015-04-01T08:00:39Z</datestamp></header>
<header><identifier>oai:kielipankki.fi:shf86110</identifier><datestamp>2015-04-01T08:00:43Z</datestamp></header>
<header status="deleted"><identifier>oai:kielipankki.fi:shf29040</identifier><datestamp>2015-04-01T08:00:42Z</datestamp></header>
<header status="deleted"><identifier>oai:kielipankki.fi:sh75de60</identifier><datestamp>2015-04-01T08:00:38Z</datestamp></header>
<header status="deleted"><identifier>oai:kielipankki.fi:she9db90</identifier><datestamp>2015-04-01T08:00:46Z</datestamp></header>
<header status="deleted"><identifier>oai:kielipankki.fi:sh27a370</identifier><datestamp>2015-04-01T08:00:42Z</datestamp></header>
<header><identifier>oai:kielipankki.fi:sha1f700</identifier><datestamp>2015-04-01T08:00:38Z</datestamp></header>
<header><identifier>oai:kielipankki.fi:sh347f20</identifier><datestamp>2015-04-01T08:00:38Z</datestamp></header>
<header status="deleted"><identifier>oai:kielipankki.fi:sh526920</identifier><datestamp>2015-04-01T08:00:45Z</datestamp></header>
<header status="deleted"><identifier>oai:kielipankki.fi:sh751d30</identifier><datestamp>2015-04-01T08:00:44Z</datestamp></header>
<header status="deleted"><identifier>oai:kielipankki.fi:sh77b450</identifier><datestamp>2015-04-01T08:00:34Z</datestamp></header>
<header><identifier>oai:kielipankki.fi:shaa5dc0</identifier><datestamp>2015-04-01T08:00:34Z</datestamp></header>
<header><identifier>oai:kielipankki.fi:shbe4f50</identifier><datestamp>2015-04-01T08:00:35Z</datestamp></header>
<header status="deleted"><identifier>oai:kielipankki.fi:sh1ab4a0</identifier><datestamp>2015-04-01T08:00:41Z</datestamp></header>
<header><identifier>oai:kielipankki.fi:sh9f64a0</identifier><datestamp>2015-04-01T08:00:44Z</datestamp></header>
<header><identifier>oai:kielipankki.fi:sh8a36a0</identifier><datestamp>2015-04-01T08:00:45Z</datestamp></header>
<header><identifier>oai:kielipankki.fi:sh0e1790</identifier><datestamp>2015-04-01T08:00:36Z</datestamp></header>
<header><identifier>oai:kielipankki.fi:shf26910</identifier><datestamp>2015-04-01T08:00:42Z</datestamp></header>
<header><identifier>oai:kielipankki.fi:shd0d800</identifier><datestamp>2015-04-01T08:00:36Z</datestamp></header>
<header><identifier>oai:kielipankki.fi:shaccf90</identifier><datestamp>2015-04-01T08:00:34Z</datestamp></header>
<header status="deleted"><identifier>oai:kielipankki.fi:sh0cf4d0</identifier><datestamp>2015-04-01T08:00:44Z</datestamp></header>
<header status="deleted"><identifier>oai:kielipankki.fi:she998b0</identifier><datestamp>2015-04-01T08:00:46Z</datestamp></header>
<header><identifier>oai:kielipankki.fi:sh7b8760</identifier><datestamp>2015-04-01T08:00:35Z</datestamp></header>
<header><identifier>oai:kielipankki.fi:sh136cd0</identifier><datestamp>2015-04-01T08:00:35Z</datestamp></header>
<header><identifier>oai:kielipankki.fi:shff9200</identifier><datestamp>2015-04-01T08:00:37Z</datestamp></header>
<header><identifier>oai:kielipankki.fi:sh3123d0</identifier><datestamp>2015-04-01T08:00:46Z</datestamp></header>
<header><identifier>oai:kielipankki.fi:sh034a70</identifier><datestamp>2015-04-01T08:00:36Z</datestamp></header>
<header><identifier>oai:kielipankki.fi:sh03de30</identifier><datestamp>2015-04-01T08:00:44Z</datestamp></header>
<header><identifier>oai:kielipankki.fi:shd27be0</identifier><datestamp>2015-04-01T08:00:42Z</datestamp></header>
<header status="deleted"><identifier>oai:kielipankki.fi:sh5bbf70</identifier><datestamp>2015-04-01T08:00:37Z</datestamp></header>
<header status="deleted"><identifier>oai:kielipankki.fi:sh14ff90</identifier><datestamp>2015-04-01T08:00:45Z</datestamp></header>
<header><identifier>oai:kielipankki.fi:sh0721e0</identifier><datestamp>2015-04-01T08:00:38Z</datestamp></header>
<header><identifier>oai:kielipankki.fi:sh6d8500</identifier><datestamp>2015-04-01T08:00:47Z</datestamp></header>
<header><identifier>oai:kielipankki.fi:sh8b5730</identifier><datestamp>2015-04-01T08:00:40Z</datestamp></header>
<header><identifier>oai:kielipankki.fi:sh341280</identifier><datestamp>2015-04-01T08:00:35Z</datestamp></header>
<header status="deleted"><identifier>oai:kielipankki.fi:sh7cebd0</identifier><datestamp>2015-04-01T08:00:37Z</datestamp></header>
<header><identifier>oai:kielipankki.fi:sh731510</identifier><datestamp>2015-04-01T08:00:38Z</datestamp></header>
<header status="deleted"><identifier>oai:kielipankki.fi:sha6d330</identifier><datestamp>2015-04-01T08:00:40Z</datestamp></header>
<header><identifier>oai:kielipankki.fi:sh5a28a0</identifier><datestamp>2015-04-01T08:00:38Z</datestamp></header>
<header status="deleted"><identifier>oai:kielipankki.fi:she9e430</identifier><datestamp>2015-04-01T08:00:41Z</datestamp></header>
<header><identifier>oai:kielipankki.fi:shbbe180</identifier><datestamp>2015-04-01T08:00:42Z</datestamp></header>
<header><identifier>oai:kielipankki.fi:shf47280</identifier><datestamp>2015-04-01T08:00:35Z</datestamp></header>
<header status="deleted"><identifier>oai:kielipankki.fi:sh478fb0</identifier><datestamp>2015-04-01T08:00:44Z</datestamp></header>
<header><identifier>oai:kielipankki.fi:sh5948f0</identifier><datestamp>2015-04-01T08:00:42Z</datestamp></header>
<header status="deleted"><identifier>oai:kielipankki.fi:sha4c1c0</identifier><datestamp>2015-04-01T08:00:37Z</datestamp></header>
<header status="deleted"><identifier>oai:kielipankki.fi:sh7d4130</identifier><datestamp>2015-04-01T08:00:47Z</datestamp></header>
<header><identifier>oai:kielipankki.fi:sh47a7a0</identifier><datestamp>2015-04-01T08:00:45Z</datestamp></header>
<header status="deleted"><identifier>oai:kielipankki.fi:sh043d30</identifier><datestamp>2015-04-01T08:00:35Z</datestamp></header>
<header><identifier>oai:kielipankki.fi:sh318f30</identifier><datestamp>2015-04-01T08:00:46Z</datestamp></header>
<header status="deleted"><identifier>oai:kielipankki.fi:shb25230</identifier><datestamp>2015-04-01T08:00:40Z</datestamp></header>
<header status="deleted"><identifier>oai:kielipankki.fi:sh485d50</identifier><datestamp>2015-04-01T08:00:39Z</datestamp></header>
<header status="deleted"><identifier>oai:kielipankki.fi:shaa7f50</identifier><datestamp>2015-04-01T08:00:34Z</datestamp></header>
<header><identifier>oai:kielipankki.fi:sh18aa70</identifier><datestamp>2015-04-01T08:00:39Z</datestamp></header>
<header><identifier>oai:kielipankki.fi:sh4969b0</identifier><datestamp>2015-04-01T08:00:46Z</datestamp></header>
<header status="deleted"><identifier>oai:kielipankki.fi:sh9756c0</identifier><datestamp>2015-04-01T08:00:47Z</datestamp></header>
<header><identifier>oai:kielipankki.fi:sh1becf0</identifier><datestamp>2015-04-01T08:00:46Z</datestamp></header>
<header><identifier>oai:kielipankki.fi:sh6dd770</identifier><datestamp>2015-04-01T08:00:40Z</datestamp></header>
<header status="deleted"><identifier>oai:kielipankki.fi:sh7eef50</identifier><datestamp>2015-04-01T08:00:39Z</datestamp></header>
<header status="deleted"><identifier>oai:kielipankki.fi:sh314ff0</identifier><datestamp>2015-04-01T08:00:44Z</datestamp></header>
<header status="deleted"><identifier>oai:kielipankki.fi:shd580b0</identifier><datestamp>2015-04-01T08:00:45Z</datestamp></header>
<header status="deleted"><identifier>oai:kielipankki.fi:sh6021b0</identifier><datestamp>2015-04-01T08:00:39Z</datestamp></header>
<header status="deleted"><identifier>oai:kielipankki.fi:shb8afd0</identifier><datestamp>2015-04-01T08:00:36Z</datestamp></header>
<header><identifier>oai:kielipankki.fi:sh17c200</identifier><datestamp>2015-04-01T08:00:42Z</datestamp></header>
<header><identifier>oai:kielipankki.fi:sh64e080</identifier><datestamp>2015-04-01T08:00:34Z</datestamp></header>
<header><identifier>oai:kielipankki.fi:sh455ba0</identifier><datestamp>2015-04-01T08:00:33Z</datestamp></header>
<header status="deleted"><identifier>oai:kielipankki.fi:sh349db0</identifier><datestamp>2015-04-01T08:00:37Z</datestamp></header>
<header status="deleted"><identifier>oai:kielipankki.fi:sha92c60</identifier><datestamp>2015-04-01T08:00:47Z</datestamp></header>
<header><identifier>oai:kielipankki.fi:sh1a4540</identifier><datestamp>2015-04-01T08:00:34Z</datestamp></header>
<header><identifier>oai:kielipankki.fi:sh059d70</identifier><datestamp>2015-04-01T08:00:41Z</datestamp></header>
<header><identifier>oai:kielipankki.fi:she68960</identifier><datestamp>2015-04-01T08:00:43Z</datestamp></header>
<header status="deleted"><identifier>oai:kielipankki.fi:sh084960</identifier><datestamp>2015-04-01T08:00:42Z</datestamp></header>
<header><identifier>oai:kielipankki.fi:sh679c90</identifier><datestamp>2015-04-01T08:00:46Z</datestamp></header>
<header><identifier>oai:kielipankki.fi:shec8a30</identifier><datestamp>2015-04-01T08:00:46Z</datestamp></header>
<header status="deleted"><identifier>oai:kielipankki.fi:sh814ec0</identifier><datestamp>2015-04-01T08:00:44Z</datestamp></header>
<header><identifier>oai:kielipankki.fi:shce4ab0</identifier><datestamp>2015-04-01T08:00:42Z</datestamp></header>
<header><identifier>oai:kielipankki.fi:sha2d270</identifier><datestamp>2015-04-01T08:00:46Z</datestamp></header>
<header status="deleted"><identifier>oai:kielipankki.fi:shda4060</identifier><datestamp>2015-04-01T08:00:40Z</datestamp></header>
<header status="deleted"><identifier>oai:kielipankki.fi:shf6c230</identifier><datestamp>2015-04-01T08:00:44Z</datestamp></header>
<header><identifier>oai:kielipankki.fi:shc56380</identifier><datestamp>2015-04-01T08:00:41Z</datestamp></header>
<header status="deleted"><identifier>oai:kielipankki.fi:sha104a0</identifier><datestamp>2015-04-01T08:00:46Z</datestamp></header>
<resumptionToken expirationDate="2015-04-12T03:29:45Z" completeListSize="208" cursor="0">TGlzdElkZW50aWZpZXJzIG1kZGZkMTh2IDE0Mjg4MDkzODUgY21kaTA1NzEgICAgMTAwIDg4OCAwNmI3NzQ4ZTFlZmQxZDY5NzVkOWI5ZGIwMzMzY2MxOQ==</resumptionToken>
   </ListIdentifiers>
</OAI-PMH>